tb_prog.vcd
$date
	Sat Apr 22 18:22:00 2023
$end
$version
	ModelSim Version 10.6d
$end
$timescale
	1ns
$end

$scope module tb_prog $end
$var parameter 32 ! Psize $end
$var parameter 32 " Isize $end
$var reg 6 # address [5:0] $end
$var reg 25 $ I [24:0] $end

$scope module dut $end
$var parameter 32 % Psize $end
$var parameter 32 & Isize $end
$var wire 1 ' address [5] $end
$var wire 1 ( address [4] $end
$var wire 1 ) address [3] $end
$var wire 1 * address [2] $end
$var wire 1 + address [1] $end
$var wire 1 , address [0] $end
$var reg 25 - I [24:0] $end
$upscope $end
$upscope $end
$enddefinitions $end
#0
$dumpvars
b0 #
b10000000000 $
b10000000000 -
b110 !
b11000 "
b110 %
b11000 &
0,
0+
0*
0)
0(
0'
$end
#1
b1 #
1,
b1100000000000 -
b1100000000000 $
#2
b10 #
0,
1+
b10100000000 -
b10100000000 $
#3
b11 #
1,
b1100100000000 -
b1100100000000 $
#4
b100 #
0,
0+
1*
b1001100000 -
b1001100000 $
#5
b101 #
1,
b1001000000000 -
b1001000000000 $
#6
b110 #
0,
1+
b1101000000 -
b1101000000 $
#7
b111 #
1,
b1001100000001 -
b1001100000001 $
#8
b1000 #
0,
0+
0*
1)
b101000000011 -
b101000000011 $
#9
b1001 #
1,
b1010011000000 -
b1010011000000 $
#10
b1010 #
b1000 #
0,
b101000000011 -
b101000000011 $
#11
b110 #
1+
1*
0)
b1101000000 -
b1101000000 $
#16
b10 #
0*
b10100000000 -
b10100000000 $
#17
b1110 #
1*
1)
b110011101100 -
b110011101100 $
#18
b111 #
1,
0)
b1001100000001 -
b1001100000001 $
#19
b1010 #
0,
0*
1)
b1010101100000 -
b1010101100000 $
#21
b100 #
0+
1*
0)
b1001100000 -
b1001100000 $
#22
b1111 #
1,
1+
1)
b1100000000000 -
b1100000000000 $
#23
b110 #
0,
0)
b1101000000 -
b1101000000 $
#24
b101 #
1,
0+
b1001000000000 -
b1001000000000 $
#25
b100 #
0,
b1001100000 -
b1001100000 $
#26
b1110 #
1+
1)
b110011101100 -
b110011101100 $
#27
b1101 #
1,
0+
b1111000000000 -
b1111000000000 $
#28
b1011 #
1+
0*
b100000000001 -
b100000000001 $
#29
b101 #
0+
1*
0)
b1001000000000 -
b1001000000000 $
